[
    {
        "ParameterKey": "StatisticsBucketName",
        "ParameterValue": "muebles-sas-statistics-diegobernal"
    },
    {
        "ParameterKey": "StatisticsProcessorLambdaName",
        "ParameterValue": "statistics-processor-diegobernal"
    },
    {
        "ParameterKey": "StatisticsTableName",
        "ParameterValue": "muebles-sas-statistics-diegobernal"
    }
]